%YAML 1.1
%TAG !u! tag:unity3d.com,2011:
--- !u!1001 &100100000
Prefab:
  m_ObjectHideFlags: 1
  serializedVersion: 2
  m_Modification:
    m_TransformParent: {fileID: 0}
    m_Modifications: []
    m_RemovedComponents: []
  m_ParentPrefab: {fileID: 0}
  m_RootGameObject: {fileID: 1804167644279862}
  m_IsPrefabParent: 1
--- !u!1 &1804167644279862
GameObject:
  m_ObjectHideFlags: 0
  m_PrefabParentObject: {fileID: 0}
  m_PrefabInternal: {fileID: 100100000}
  serializedVersion: 5
  m_Component:
  - component: {fileID: 4175141425790656}
  - component: {fileID: 114729120796321756}
  m_Layer: 0
  m_Name: AppearenceControllerPrefab
  m_TagString: Untagged
  m_Icon: {fileID: 0}
  m_NavMeshLayer: 0
  m_StaticEditorFlags: 0
  m_IsActive: 1
--- !u!4 &4175141425790656
Transform:
  m_ObjectHideFlags: 1
  m_PrefabParentObject: {fileID: 0}
  m_PrefabInternal: {fileID: 100100000}
  m_GameObject: {fileID: 1804167644279862}
  m_LocalRotation: {x: 0, y: 0, z: 0, w: 1}
  m_LocalPosition: {x: 3.7409558, y: -1.6986272, z: -2.9406161}
  m_LocalScale: {x: 1, y: 1, z: 1}
  m_Children: []
  m_Father: {fileID: 0}
  m_RootOrder: 0
  m_LocalEulerAnglesHint: {x: 0, y: 0, z: 0}
--- !u!114 &114729120796321756
MonoBehaviour:
  m_ObjectHideFlags: 1
  m_PrefabParentObject: {fileID: 0}
  m_PrefabInternal: {fileID: 100100000}
  m_GameObject: {fileID: 1804167644279862}
  m_Enabled: 1
  m_EditorHideFlags: 0
  m_Script: {fileID: 11500000, guid: 5c76696bcb66343cab730a15a6bfe3c6, type: 3}
  m_Name: 
  m_EditorClassIdentifier: 
  ApoRed: {fileID: 0}
  DestroyAfterInitializing: 0
  StandardRedMaterial: {fileID: 2100000, guid: 7c99ee9c0d10b4ac2ab7632683ae2662, type: 2}
  StandardRedHeadAccessoire: {fileID: 0}
  StandardRedMenuAnimator: {fileID: 9100000, guid: 85a638439e437b640b28d7616bad1102,
    type: 2}
  StandardRedGameAnimator: {fileID: 9100000, guid: 562517dfa82b54622aaa3865cb7c320f,
    type: 2}
  StandardRedLeftHandTool: {fileID: 0}
  StandardRedRightHandTool: {fileID: 0}
  SpaceRedMaterial: {fileID: 2100000, guid: 7c99ee9c0d10b4ac2ab7632683ae2662, type: 2}
  SpaceRedHeadAccessoire: {fileID: 0}
  SpaceRedMenuAnimator: {fileID: 9100000, guid: 85a638439e437b640b28d7616bad1102,
    type: 2}
  SpaceRedGameAnimator: {fileID: 9100000, guid: 562517dfa82b54622aaa3865cb7c320f,
    type: 2}
  SpaceRedLeftHandTool: {fileID: 0}
  SpaceRedRightHandTool: {fileID: 0}
